,Municipality / Barangay,,Population
Aklan,Altavas,Cabangila,"1,705"
,Altavas,Cabugao,"1,708"
,Altavas,Catmon,"1,504"
,Altavas,Dalipdip,698
,Altavas,Ginictan,"1,527"
,Altavas,Linayasan,"1,860"
,Altavas,Lumaynay,"1,585"
,Altavas,Lupo,"2,251"
,Altavas,Man-up,"2,360"
,Altavas,Odiong,"2,961"
,Altavas,Poblacion,"2,465"
,Altavas,Quinasay-an,459
,Altavas,Talon,"1,587"
,Altavas,Tibiao,"1,249"
,Balete,Aranas,"5,083"
,Balete,Arcangel,"3,454"
,Balete,Calizo,"3,773"
,Balete,Cortes,"2,872"
,Balete,Feliciano,"2,788"
,Balete,Fulgencio,"3,230"
,Balete,Guanko,"1,322"
,Balete,Morales,"2,619"
,Balete,Oquendo,"1,226"
,Balete,Poblacion,830
,Banga,Agbanawan,"1,458"
,Banga,Bacan,"1,637"
,Banga,Badiangan,"1,644"
,Banga,Cerrudo,"1,237"
,Banga,Cupang,736
,Banga,Daguitan,477
,Banga,Daja Norte,"1,563"
,Banga,Daja Sur,602
,Banga,Dingle,723
,Banga,Jumarap,"1,744"
,Banga,Lapnag,594
,Banga,Libas,"1,662"
,Banga,Linabuan Sur,"3,455"
,Banga,Mambog,"1,596"
,Banga,Mangan,"1,632"
,Banga,Muguing,695
,Banga,Pagsanghan,"1,735"
,Banga,Palale,599
,Banga,Poblacion,"2,469"
,Banga,Polo,"1,240"
,Banga,Polocate,"1,638"
,Banga,San Isidro,305
,Banga,Sibalew,940
,Banga,Sigcay,974
,Banga,Taba-ao,"1,196"
,Banga,Tabayon,"1,454"
,Banga,Tinapuay,381
,Banga,Torralba,"1,550"
,Banga,Ugsod,"1,426"
,Batan,BATAN,"30,312"
,Batan,Ambolong,"2,047"
,Batan,Angas,"1,456"
,Batan,Bay-ang,"2,096"
,Batan,Caiyang,832
,Batan,Cabugao,"1,948"
,Batan,Camaligan,"2,616"
,Batan,Camanci,"2,544"
,Batan,Ipil,504
,Batan,Lalab,"2,820"
,Batan,Lupit,"1,593"
,Batan,Magpag-ong,"1,432"
,Batan,Magubahay,596
,Batan,Mambuquiao,"1,418"
,Batan,Man-up,911
,Batan,Mandong,"1,525"
,Batan,Napti,"1,011"
,Batan,Palay,"1,453"
,Batan,Poblacion,"1,547"
,Batan,Songcolan,"1,122"
,Batan,Tabon,841
,Buruanga,Alegria,"1,695"
,Buruanga,Bagongbayan,951
,Buruanga,Balusbos,930
,Buruanga,Bel-is,695
,Buruanga,Cabugan,696
,Buruanga,El Progreso,946
,Buruanga,Habana,"1,605"
,Buruanga,Katipunan,"1,708"
,Buruanga,Mayapay,"1,033"
,Buruanga,Nazareth,"1,696"
,Buruanga,Panilongan,"1,062"
,Buruanga,Poblacion,"1,116"
,Buruanga,Santander,"1,210"
,Buruanga,Tag-osip,255
,Buruanga,Tigum,"1,364"
,Ibajay,Agbago,"1,857"
,Ibajay,Agdugayan,"1,071"
,Ibajay,Antipolo,727
,Ibajay,Aparicio,733
,Ibajay,Aquino,"2,791"
,Ibajay,Aslum,"1,220"
,Ibajay,Bagacay,949
,Ibajay,Batuan,"1,059"
,Ibajay,Buenavista,461
,Ibajay,Bugtongbato,"1,281"
,Ibajay,Cabugao,210
,Ibajay,Capilijan,974
,Ibajay,Colongcolong,"1,030"
,Ibajay,Laguinbanua,"2,894"
,Ibajay,Mabusao,631
,Ibajay,Malindog,187
,Ibajay,Maloco,"2,581"
,Ibajay,Mina-a,614
,Ibajay,Monlaque,808
,Ibajay,Naile,"2,325"
,Ibajay,Naisud,"2,838"
,Ibajay,Naligusan,758
,Ibajay,Ondoy,"2,294"
,Ibajay,Poblacion,"2,804"
,Ibajay,Polo,"1,019"
,Ibajay,Regador,"1,904"
,Ibajay,Rivera,199
,Ibajay,Rizal,"1,272"
,Ibajay,San Isidro,"1,609"
,Ibajay,San Jose,"1,684"
,Ibajay,Santa Cruz,"1,142"
,Ibajay,Tagbaya,"1,721"
,Ibajay,Tul-ang,628
,Ibajay,Unat,741
,Ibajay,Yawan,263
,Kalibo (Capital),Andagaw,"12,607"
,Kalibo (Capital),Bachaw Norte,"2,031"
,Kalibo (Capital),Bachaw Sur,"2,688"
,Kalibo (Capital),Briones,"1,246"
,Kalibo (Capital),Buswang New,"9,231"
,Kalibo (Capital),Buswang Old,"2,420"
,Kalibo (Capital),Caano,"1,488"
,Kalibo (Capital),Estancia,"8,672"
,Kalibo (Capital),Linabuan Norte,"4,058"
,Kalibo (Capital),Mabilo,"2,298"
,Kalibo (Capital),Mobo,"1,939"
,Kalibo (Capital),Nalook,"2,879"
,Kalibo (Capital),Poblacion,"11,018"
,Kalibo (Capital),Pook,"5,010"
,Kalibo (Capital),Tigayon,"4,648"
,Kalibo (Capital),Tinigaw,"2,386"
,Lezo,Agcawilan,"1,351"
,Lezo,Bagto,"1,027"
,Lezo,Bugasongan,"1,183"
,Lezo,Carugdog,"1,369"
,Lezo,Cogon,893
,Lezo,Ibao,"1,317"
,Lezo,Mina,"1,052"
,Lezo,Poblacion,"2,113"
,Lezo,Santa Cruz,"1,132"
,Lezo,Santa Cruz Bigaa,"1,038"
,Lezo,Silakat-Nonok,856
,Lezo,Tayhawan,"1,187"
,Libacao,Agmailig,755
,Libacao,Alfonso XIII,"1,323"
,Libacao,Batobato,453
,Libacao,Bonza,333
,Libacao,Calacabian,932
,Libacao,Calamcan,613
,Libacao,Can-Awan,542
,Libacao,Casit-an,342
,Libacao,Dalagsa-an,"2,173"
,Libacao,Guadalupe,"1,412"
,Libacao,Janlud,740
,Libacao,Julita,"1,763"
,Libacao,Luctoga,"1,451"
,Libacao,Magugba,644
,Libacao,Manika,"2,622"
,Libacao,Ogsip,"1,066"
,Libacao,Ortega,"1,309"
,Libacao,Oyang,"1,028"
,Libacao,Pampango,"1,360"
,Libacao,Pinonoy,708
,Libacao,Poblacion,"3,661"
,Libacao,Rivera,596
,Libacao,Rosal,"1,476"
,Libacao,Sibalew,703
,Madalang,Alaminos,"1,071"
,Madalang,Alas-as,684
,Madalang,Bacyang,439
,Madalang,Balactasan,722
,Madalang,Cabangahan,494
,Madalang,Cabilawan,616
,Madalang,Catabana,513
,Madalang,Dit-Ana,395
,Madalang,Galicia,362
,Madalang,Guinatu-an,404
,Madalang,Logohon,523
,Madalang,Mamba,756
,Madalang,Maria Cristina,938
,Madalang,Medina,"1,085"
,Madalang,Mercedes,543
,Madalang,Napnot,789
,Madalang,Pang-Itan,893
,Madalang,Paningayan,"1,352"
,Madalang,Panipiason,"1,326"
,Madalang,Poblacion,"1,562"
,Madalang,San Jose,863
,Madalang,Singay,450
,Madalang,Talangban,437
,Madalang,Talimagao,345
,Madalang,Tigbawan,606
,Makato,Agbalogo,990
,Makato,Aglucay,521
,Makato,Alibagon,543
,Makato,Bagong Barrio,429
,Makato,Baybay,"1,916"
,Makato,Cabatanga,"1,144"
,Makato,Cajilo,"1,294"
,Makato,Calangcang,"1,701"
,Makato,Calimbajan,"1,855"
,Makato,Castillo,791
,Makato,Cayangwan,"2,058"
,Makato,Dumga,"2,107"
,Makato,Libang,"1,561"
,Makato,Mantiguib,"1,778"
,Makato,Poblacion,"3,172"
,Makato,Tibiawan,785
,Makato,Tina,"1,094"
,Makato,Tugas,"1,722"
,Malay,Argao,"1,078"
,Malay,Balabag,"11,076"
,Malay,Balusbus,"1,079"
,Malay,Cabulihan,575
,Malay,Caticlan,"6,593"
,Malay,Cogon,544
,Malay,Cubay Norte,327
,Malay,Cubay Sur,"1,153"
,Malay,Dumlog,768
,Malay,Manoc-Manoc,"12,526"
,Malay,Naasug,547
,Malay,Nabaoy,"1,025"
,Malay,Napaan,649
,Malay,Poblacion,"1,255"
,Malay,San Viray,"1,031"
,Malay,Yapak,"4,767"
,Malay,Motag,818
,Malinao,Banaybanay,"1,007"
,Malinao,Biga-a,805
,Malinao,Bulabud,"1,764"
,Malinao,Cabayugan,"1,260"
,Malinao,Capataga,129
,Malinao,Cogon,419
,Malinao,Dangcalan,723
,Malinao,Kinalangay Nuevo,952
,Malinao,Kinalangay Viejo,"1,871"
,Malinao,Lilo-an,"1,478"
,Malinao,Malandayon,767
,Malinao,Manhanip,"1,177"
,Malinao,Navitas,"1,290"
,Malinao,Osman,715
,Malinao,Poblacion,"1,660"
,Malinao,Rosario,"2,199"
,Malinao,San dimas,892
,Malinao,San Ramon,893
,Malinao,San Roque,"1,413"
,Malinao,Sipac,522
,Malinao,Sugnod,476
,Malinao,Tambuan,"1,346"
,Malinao,Tigpalas,350
,Nabas,Alimbo-Baybay,"1,020"
,Nabas,Buenasuerte,"1,603"
,Nabas,Buenafortuna,"1,107"
,Nabas,Buenavista,"1,434"
,Nabas,Gibon,"2,887"
,Nabas,Habana,"1,096"
,Nabas,Laserna,"2,497"
,Nabas,Libertad,"1,263"
,Nabas,Magallanes,680
,Nabas,Matabana,642
,Nabas,Nagustan,"2,937"
,Nabas,Pawa,208
,Nabas,Pinatuad,729
,Nabas,Poblacion,"1,897"
,Nabas,Rizal,"1,291"
,Nabas,Solido,"1,757"
,Nabas,Tagororoc,846
,Nabas,Toledo,"2,222"
,Nabas,Unidos,"2,344"
,Nabas,Union,"2,592"
,New Washington,Candelaria,"1,626"
,New Washington,Cawayan,"3,784"
,New Washington,Dumaguit,"1,996"
,New Washington,Fatima,"1,182"
,New Washington,Guinbaliwan,"2,813"
,New Washington,Jalas,"1,648"
,New Washington,Jugas,"2,427"
,New Washington,Lawa-an,"1,414"
,New Washington,Mabilo,"3,035"
,New Washington,Mataphao,"1,554"
,New Washington,Ochando,"3,028"
,New Washington,Pinamuk-an,"2,692"
,New Washington,Poblacion,"6,036"
,New Washington,Polo,"3,476"
,New Washington,Puis,"2,360"
,New Washington,Tambak,"3,041"
,Numancia,Albasan,"1,503"
,Numancia,Aliputos,"2,132"
,Numancia,Badio,"1,470"
,Numancia,Bubog,"1,639"
,Numancia,Bulwang,"4,170"
,Numancia,Camanci Norte,"2,488"
,Numancia,Camanci Sur,977
,Numancia,Dongon East,"1,593"
,Numancia,Dongon West,"2,071"
,Numancia,Joyao-joyao,"1,609"
,Numancia,Laguinbanua East,"2,081"
,Numancia,Laguinbanua West,"1,708"
,Numancia,Marianos,"1,003"
,Numancia,Navitas,"1,465"
,Numancia,Poblacion,"1,536"
,Numancia,Pusiw,"1,484"
,Numancia,Tabangka,933
,Tangalan,Afga,"1,472"
,Tangalan,Baybay,"1,582"
,Tangalan,Dapdap,966
,Tangalan,Dumatad,"1,051"
,Tangalan,Jawili,"1,732"
,Tangalan,Lanipga,312
,Tangalan,Napatag,280
,Tangalan,Panayakan,"2,684"
,Tangalan,Poblacion,"1,429"
,Tangalan,Pudiot,"1,617"
,Tangalan,Tagas,"2,017"
,Tangalan,Tamalagon,"2,497"
,Tangalan,Tamokoe,228
,Tangalan,Tondog,"1,745"
,Tangalan,Vivo,665
